/nfs/cs-ccr-nfsdev/vol1/u1/damedina/workspace-java/AwakeCalibrationFactors/src/main/java/cern/fesa/expert2/AwakeCalibrationFactors/comm/data/PropertyWrapper.java
/nfs/cs-ccr-nfsdev/vol1/u1/damedina/workspace-java/AwakeCalibrationFactors/src/main/java/cern/fesa/expert2/AwakeCalibrationFactors/comm/ISubscriberAdapter.java
/nfs/cs-ccr-nfsdev/vol1/u1/damedina/workspace-java/AwakeCalibrationFactors/src/main/java/cern/fesa/expert2/AwakeCalibrationFactors/comm/FesaAdapter.java
/nfs/cs-ccr-nfsdev/vol1/u1/damedina/workspace-java/AwakeCalibrationFactors/src/main/java/cern/fesa/expert2/AwakeCalibrationFactors/config/Config.java
/nfs/cs-ccr-nfsdev/vol1/u1/damedina/workspace-java/AwakeCalibrationFactors/src/main/java/cern/fesa/expert2/AwakeCalibrationFactors/utils/Observer.java
/nfs/cs-ccr-nfsdev/vol1/u1/damedina/workspace-java/AwakeCalibrationFactors/src/main/java/cern/fesa/expert2/AwakeCalibrationFactors/test/MockFesaAdapter.java
/nfs/cs-ccr-nfsdev/vol1/u1/damedina/workspace-java/AwakeCalibrationFactors/src/main/java/cern/fesa/expert2/AwakeCalibrationFactors/comm/IFesaAdapter.java
/nfs/cs-ccr-nfsdev/vol1/u1/damedina/workspace-java/AwakeCalibrationFactors/src/main/java/cern/fesa/expert2/AwakeCalibrationFactors/config/FesaProperty.java
/nfs/cs-ccr-nfsdev/vol1/u1/damedina/workspace-java/AwakeCalibrationFactors/src/main/java/cern/fesa/expert2/AwakeCalibrationFactors/comm/data/DataMaperFactory.java
/nfs/cs-ccr-nfsdev/vol1/u1/damedina/workspace-java/AwakeCalibrationFactors/src/main/java/cern/fesa/expert2/AwakeCalibrationFactors/comm/data/CalibrationFactorsMaper.java
/nfs/cs-ccr-nfsdev/vol1/u1/damedina/workspace-java/AwakeCalibrationFactors/src/main/java/cern/fesa/expert2/AwakeCalibrationFactors/Controller.java
/nfs/cs-ccr-nfsdev/vol1/u1/damedina/workspace-java/AwakeCalibrationFactors/src/main/java/cern/fesa/expert2/AwakeCalibrationFactors/comm/data/CalibrationFactors.java
/nfs/cs-ccr-nfsdev/vol1/u1/damedina/workspace-java/AwakeCalibrationFactors/src/main/java/cern/fesa/expert2/AwakeCalibrationFactors/comm/PropertyCommunicator.java
/nfs/cs-ccr-nfsdev/vol1/u1/damedina/workspace-java/AwakeCalibrationFactors/src/main/java/cern/fesa/expert2/AwakeCalibrationFactors/comm/data/IDataMaper.java
/nfs/cs-ccr-nfsdev/vol1/u1/damedina/workspace-java/AwakeCalibrationFactors/src/main/java/cern/fesa/expert2/AwakeCalibrationFactors/AwakeCalibrationFactors.java
/nfs/cs-ccr-nfsdev/vol1/u1/damedina/workspace-java/AwakeCalibrationFactors/src/main/java/cern/fesa/expert2/AwakeCalibrationFactors/model/Model.java
